\relax 
\providecommand\hyper@newdestlabel[2]{}
\providecommand\HyperFirstAtBeginDocument{\AtBeginDocument}
\HyperFirstAtBeginDocument{\ifx\hyper@anchor\@undefined
\global\let\oldcontentsline\contentsline
\gdef\contentsline#1#2#3#4{\oldcontentsline{#1}{#2}{#3}}
\global\let\oldnewlabel\newlabel
\gdef\newlabel#1#2{\newlabelxx{#1}#2}
\gdef\newlabelxx#1#2#3#4#5#6{\oldnewlabel{#1}{{#2}{#3}}}
\AtEndDocument{\ifx\hyper@anchor\@undefined
\let\contentsline\oldcontentsline
\let\newlabel\oldnewlabel
\fi}
\fi}
\global\let\hyper@last\relax 
\gdef\HyperFirstAtBeginDocument#1{#1}
\providecommand\HyField@AuxAddToFields[1]{}
\providecommand\HyField@AuxAddToCoFields[2]{}
\citation{pharr2005gpu}
\citation{harris2005gpgpu}
\citation{tsutsui2013massively}
\citation{wen2011gpu}
\citation{nvidia2008programming}
\citation{munshi2009opencl}
\citation{hansen2006cma}
\citation{DNA10}
\citation{Durillo2011}
\citation{macedonia2003gpu}
\citation{Gaster2012}
\citation{Hansen2011}
\@writefile{toc}{\contentsline {section}{\numberline {1}Introduction}{\thepage }{section.1}}
\@writefile{toc}{\contentsline {section}{\numberline {2}Implementation}{\thepage }{section.2}}
\citation{DNA10}
\citation{shirazi2002tool}
\@writefile{toc}{\contentsline {section}{\numberline {3}Results}{\thepage }{section.3}}
\@writefile{lot}{\contentsline {table}{\numberline {1}{\ignorespaces GPU hardware comparison}}{\thepage }{table.1}}
\newlabel{tab:hardware}{{1}{\thepage }{GPU hardware comparison}{table.1}{}}
\@writefile{lot}{\contentsline {table}{\numberline {2}{\ignorespaces Run times on Nvidia GeForce 650gtx}}{\thepage }{table.2}}
\newlabel{tab:nvidia_results}{{2}{\thepage }{Run times on Nvidia GeForce 650gtx}{table.2}{}}
\@writefile{lot}{\contentsline {table}{\numberline {3}{\ignorespaces Run times on Intel i7-3820 CPU}}{\thepage }{table.3}}
\newlabel{tab:intel_results}{{3}{\thepage }{Run times on Intel i7-3820 CPU}{table.3}{}}
\@writefile{lof}{\contentsline {figure}{\numberline {1}{\ignorespaces Runtime comparison on logarithmic scale}}{\thepage }{figure.1}}
\newlabel{fig:nvidia_vs_intel}{{1}{\thepage }{Runtime comparison on logarithmic scale}{figure.1}{}}
\bibstyle{abbrv}
\bibdata{bibliography}
\bibcite{DNA10}{1}
\bibcite{Durillo2011}{2}
\bibcite{Gaster2012}{3}
\bibcite{hansen2006cma}{4}
\bibcite{Hansen2011}{5}
\bibcite{harris2005gpgpu}{6}
\bibcite{macedonia2003gpu}{7}
\bibcite{munshi2009opencl}{8}
\bibcite{nvidia2008programming}{9}
\bibcite{pharr2005gpu}{10}
\bibcite{shirazi2002tool}{11}
\bibcite{tsutsui2013massively}{12}
\bibcite{wen2011gpu}{13}
\@writefile{lot}{\contentsline {table}{\numberline {4}{\ignorespaces Run times on ATI Radeon R9-280x}}{\thepage }{table.4}}
\newlabel{tab:ati_results}{{4}{\thepage }{Run times on ATI Radeon R9-280x}{table.4}{}}
\@writefile{lot}{\contentsline {table}{\numberline {5}{\ignorespaces Run times on AMD FX-6300}}{\thepage }{table.5}}
\newlabel{tab:amd_results}{{5}{\thepage }{Run times on AMD FX-6300}{table.5}{}}
\@writefile{lof}{\contentsline {figure}{\numberline {2}{\ignorespaces Runtime comparison on logarithmic scale}}{\thepage }{figure.2}}
\newlabel{fig:radeon_vs_amd}{{2}{\thepage }{Runtime comparison on logarithmic scale}{figure.2}{}}
\@writefile{toc}{\contentsline {section}{\numberline {4}Conclusion}{\thepage }{section.4}}
\@writefile{toc}{\contentsline {section}{\numberline {5}Acknowledgment}{\thepage }{section.5}}
\@writefile{toc}{\contentsline {section}{\numberline {6}Future Work}{\thepage }{section.6}}
\@writefile{toc}{\contentsline {section}{\numberline {7}References}{\thepage }{section.7}}
