\BOOKMARK [1][-]{section.1}{Introduction}{}% 1
\BOOKMARK [1][-]{section.2}{Implementation}{}% 2
\BOOKMARK [1][-]{section.3}{Results}{}% 3
\BOOKMARK [1][-]{section.4}{Conclusion}{}% 4
\BOOKMARK [1][-]{section.5}{Acknowledgment}{}% 5
\BOOKMARK [1][-]{section.6}{Future Work}{}% 6
\BOOKMARK [1][-]{section.7}{References}{}% 7
