%!PS-Adobe-3.0 EPSF-3.0
%%Creator: (MATLAB, The Mathworks, Inc. Version 8.5.0.197613 \(R2015a\). Operating System: Linux)
%%Title: /home/dormage/Documents/papers/opencl/figures/nvidia_vs_intel.eps
%%CreationDate: 2016-08-30T16:58:42
%%Pages: (atend)
%%BoundingBox: 0 0 432 322
%%LanguageLevel: 2
%%EndComments
%%BeginProlog
%%BeginResource: procset (Apache XML Graphics Std ProcSet) 1.2 0
%%Version: 1.2 0
%%Copyright: (Copyright 2001-2003,2010 The Apache Software Foundation. License terms: http://www.apache.org/licenses/LICENSE-2.0)
/bd{bind def}bind def
/ld{load def}bd
/GR/grestore ld
/M/moveto ld
/LJ/setlinejoin ld
/C/curveto ld
/f/fill ld
/LW/setlinewidth ld
/GC/setgray ld
/t/show ld
/N/newpath ld
/CT/concat ld
/cp/closepath ld
/S/stroke ld
/L/lineto ld
/CC/setcmykcolor ld
/A/ashow ld
/GS/gsave ld
/RC/setrgbcolor ld
/RM/rmoveto ld
/ML/setmiterlimit ld
/re {4 2 roll M
1 index 0 rlineto
0 exch rlineto
neg 0 rlineto
cp } bd
/_ctm matrix def
/_tm matrix def
/BT { _ctm currentmatrix pop matrix _tm copy pop 0 0 moveto } bd
/ET { _ctm setmatrix } bd
/iTm { _ctm setmatrix _tm concat } bd
/Tm { _tm astore pop iTm 0 0 moveto } bd
/ux 0.0 def
/uy 0.0 def
/F {
  /Tp exch def
  /Tf exch def
  Tf findfont Tp scalefont setfont
  /cf Tf def  /cs Tp def
} bd
/ULS {currentpoint /uy exch def /ux exch def} bd
/ULE {
  /Tcx currentpoint pop def
  gsave
  newpath
  cf findfont cs scalefont dup
  /FontMatrix get 0 get /Ts exch def /FontInfo get dup
  /UnderlinePosition get Ts mul /To exch def
  /UnderlineThickness get Ts mul /Tt exch def
  ux uy To add moveto  Tcx uy To add lineto
  Tt setlinewidth stroke
  grestore
} bd
/OLE {
  /Tcx currentpoint pop def
  gsave
  newpath
  cf findfont cs scalefont dup
  /FontMatrix get 0 get /Ts exch def /FontInfo get dup
  /UnderlinePosition get Ts mul /To exch def
  /UnderlineThickness get Ts mul /Tt exch def
  ux uy To add cs add moveto Tcx uy To add cs add lineto
  Tt setlinewidth stroke
  grestore
} bd
/SOE {
  /Tcx currentpoint pop def
  gsave
  newpath
  cf findfont cs scalefont dup
  /FontMatrix get 0 get /Ts exch def /FontInfo get dup
  /UnderlinePosition get Ts mul /To exch def
  /UnderlineThickness get Ts mul /Tt exch def
  ux uy To add cs 10 mul 26 idiv add moveto Tcx uy To add cs 10 mul 26 idiv add lineto
  Tt setlinewidth stroke
  grestore
} bd
/QT {
/Y22 exch store
/X22 exch store
/Y21 exch store
/X21 exch store
currentpoint
/Y21 load 2 mul add 3 div exch
/X21 load 2 mul add 3 div exch
/X21 load 2 mul /X22 load add 3 div
/Y21 load 2 mul /Y22 load add 3 div
/X22 load /Y22 load curveto
} bd
/SSPD {
dup length /d exch dict def
{
/v exch def
/k exch def
currentpagedevice k known {
/cpdv currentpagedevice k get def
v cpdv ne {
/upd false def
/nullv v type /nulltype eq def
/nullcpdv cpdv type /nulltype eq def
nullv nullcpdv or
{
/upd true def
} {
/sametype v type cpdv type eq def
sametype {
v type /arraytype eq {
/vlen v length def
/cpdvlen cpdv length def
vlen cpdvlen eq {
0 1 vlen 1 sub {
/i exch def
/obj v i get def
/cpdobj cpdv i get def
obj cpdobj ne {
/upd true def
exit
} if
} for
} {
/upd true def
} ifelse
} {
v type /dicttype eq {
v {
/dv exch def
/dk exch def
/cpddv cpdv dk get def
dv cpddv ne {
/upd true def
exit
} if
} forall
} {
/upd true def
} ifelse
} ifelse
} if
} ifelse
upd true eq {
d k v put
} if
} if
} if
} forall
d length 0 gt {
d setpagedevice
} if
} bd
%%EndResource
%%BeginResource: procset (Apache XML Graphics EPS ProcSet) 1.0 0
%%Version: 1.0 0
%%Copyright: (Copyright 2002-2003 The Apache Software Foundation. License terms: http://www.apache.org/licenses/LICENSE-2.0)
/BeginEPSF { %def
/b4_Inc_state save def         % Save state for cleanup
/dict_count countdictstack def % Count objects on dict stack
/op_count count 1 sub def      % Count objects on operand stack
userdict begin                 % Push userdict on dict stack
/showpage { } def              % Redefine showpage, { } = null proc
0 setgray 0 setlinecap         % Prepare graphics state
1 setlinewidth 0 setlinejoin
10 setmiterlimit [ ] 0 setdash newpath
/languagelevel where           % If level not equal to 1 then
{pop languagelevel             % set strokeadjust and
1 ne                           % overprint to their defaults.
{false setstrokeadjust false setoverprint
} if
} if
} bd
/EndEPSF { %def
count op_count sub {pop} repeat            % Clean up stacks
countdictstack dict_count sub {end} repeat
b4_Inc_state restore
} bd
%%EndResource
%FOPBeginFontDict
%%IncludeResource: font Courier-Bold
%%IncludeResource: font Helvetica
%%IncludeResource: font Courier-BoldOblique
%%IncludeResource: font Courier-Oblique
%%IncludeResource: font Times-Roman
%%IncludeResource: font Helvetica-BoldOblique
%%IncludeResource: font Helvetica-Bold
%%IncludeResource: font Helvetica-Oblique
%%IncludeResource: font Times-BoldItalic
%%IncludeResource: font Courier
%%IncludeResource: font Times-Italic
%%IncludeResource: font Times-Bold
%%IncludeResource: font Symbol
%%IncludeResource: font ZapfDingbats
%FOPEndFontDict
%%BeginResource: encoding WinAnsiEncoding
/WinAnsiEncoding [
/.notdef /.notdef /.notdef /.notdef /.notdef
/.notdef /.notdef /.notdef /.notdef /.notdef
/.notdef /.notdef /.notdef /.notdef /.notdef
/.notdef /.notdef /.notdef /.notdef /.notdef
/.notdef /.notdef /.notdef /.notdef /.notdef
/.notdef /.notdef /.notdef /.notdef /.notdef
/.notdef /.notdef /space /exclam /quotedbl
/numbersign /dollar /percent /ampersand /quotesingle
/parenleft /parenright /asterisk /plus /comma
/hyphen /period /slash /zero /one
/two /three /four /five /six
/seven /eight /nine /colon /semicolon
/less /equal /greater /question /at
/A /B /C /D /E
/F /G /H /I /J
/K /L /M /N /O
/P /Q /R /S /T
/U /V /W /X /Y
/Z /bracketleft /backslash /bracketright /asciicircum
/underscore /quoteleft /a /b /c
/d /e /f /g /h
/i /j /k /l /m
/n /o /p /q /r
/s /t /u /v /w
/x /y /z /braceleft /bar
/braceright /asciitilde /bullet /Euro /bullet
/quotesinglbase /florin /quotedblbase /ellipsis /dagger
/daggerdbl /circumflex /perthousand /Scaron /guilsinglleft
/OE /bullet /Zcaron /bullet /bullet
/quoteleft /quoteright /quotedblleft /quotedblright /bullet
/endash /emdash /asciitilde /trademark /scaron
/guilsinglright /oe /bullet /zcaron /Ydieresis
/space /exclamdown /cent /sterling /currency
/yen /brokenbar /section /dieresis /copyright
/ordfeminine /guillemotleft /logicalnot /sfthyphen /registered
/macron /degree /plusminus /twosuperior /threesuperior
/acute /mu /paragraph /middot /cedilla
/onesuperior /ordmasculine /guillemotright /onequarter /onehalf
/threequarters /questiondown /Agrave /Aacute /Acircumflex
/Atilde /Adieresis /Aring /AE /Ccedilla
/Egrave /Eacute /Ecircumflex /Edieresis /Igrave
/Iacute /Icircumflex /Idieresis /Eth /Ntilde
/Ograve /Oacute /Ocircumflex /Otilde /Odieresis
/multiply /Oslash /Ugrave /Uacute /Ucircumflex
/Udieresis /Yacute /Thorn /germandbls /agrave
/aacute /acircumflex /atilde /adieresis /aring
/ae /ccedilla /egrave /eacute /ecircumflex
/edieresis /igrave /iacute /icircumflex /idieresis
/eth /ntilde /ograve /oacute /ocircumflex
/otilde /odieresis /divide /oslash /ugrave
/uacute /ucircumflex /udieresis /yacute /thorn
/ydieresis
] def
%%EndResource
%FOPBeginFontReencode
/Courier-Bold findfont
dup length dict begin
  {1 index /FID ne {def} {pop pop} ifelse} forall
  /Encoding WinAnsiEncoding def
  currentdict
end
/Courier-Bold exch definefont pop
/Helvetica findfont
dup length dict begin
  {1 index /FID ne {def} {pop pop} ifelse} forall
  /Encoding WinAnsiEncoding def
  currentdict
end
/Helvetica exch definefont pop
/Courier-BoldOblique findfont
dup length dict begin
  {1 index /FID ne {def} {pop pop} ifelse} forall
  /Encoding WinAnsiEncoding def
  currentdict
end
/Courier-BoldOblique exch definefont pop
/Courier-Oblique findfont
dup length dict begin
  {1 index /FID ne {def} {pop pop} ifelse} forall
  /Encoding WinAnsiEncoding def
  currentdict
end
/Courier-Oblique exch definefont pop
/Times-Roman findfont
dup length dict begin
  {1 index /FID ne {def} {pop pop} ifelse} forall
  /Encoding WinAnsiEncoding def
  currentdict
end
/Times-Roman exch definefont pop
/Helvetica-BoldOblique findfont
dup length dict begin
  {1 index /FID ne {def} {pop pop} ifelse} forall
  /Encoding WinAnsiEncoding def
  currentdict
end
/Helvetica-BoldOblique exch definefont pop
/Helvetica-Bold findfont
dup length dict begin
  {1 index /FID ne {def} {pop pop} ifelse} forall
  /Encoding WinAnsiEncoding def
  currentdict
end
/Helvetica-Bold exch definefont pop
/Helvetica-Oblique findfont
dup length dict begin
  {1 index /FID ne {def} {pop pop} ifelse} forall
  /Encoding WinAnsiEncoding def
  currentdict
end
/Helvetica-Oblique exch definefont pop
/Times-BoldItalic findfont
dup length dict begin
  {1 index /FID ne {def} {pop pop} ifelse} forall
  /Encoding WinAnsiEncoding def
  currentdict
end
/Times-BoldItalic exch definefont pop
/Courier findfont
dup length dict begin
  {1 index /FID ne {def} {pop pop} ifelse} forall
  /Encoding WinAnsiEncoding def
  currentdict
end
/Courier exch definefont pop
/Times-Italic findfont
dup length dict begin
  {1 index /FID ne {def} {pop pop} ifelse} forall
  /Encoding WinAnsiEncoding def
  currentdict
end
/Times-Italic exch definefont pop
/Times-Bold findfont
dup length dict begin
  {1 index /FID ne {def} {pop pop} ifelse} forall
  /Encoding WinAnsiEncoding def
  currentdict
end
/Times-Bold exch definefont pop
%FOPEndFontReencode
%%EndProlog
%%Page: 1 1
%%PageBoundingBox: 0 0 432 322
%%BeginPageSetup
[1 0 0 -1 0 322] CT
%%EndPageSetup
GS
[0.75789 0 0 0.75789 0 -0.10529] CT
1 GC
N
0 0 570 425 re
f
GR
GS
[0.75789 0 0 0.75789 0 -0.10529] CT
1 GC
N
0 0 570 425 re
f
GR
GS
[0.75789 0 0 0.75789 0 -0.10529] CT
1 GC
N
74 378 M
516 378 L
516 32 L
74 32 L
cp
f
GR
GS
[0.75789 0 0 0.75789 223.57911 304.26316] CT
0.149 GC
/Helvetica 15 F
GS
[1 0 0 1 0 0] CT
-49 14 moveto 
1 -1 scale
(Problem Size) t 
GR
GR
GS
[0.75789 0 0 0.75789 0 -0.10529] CT
0.149 GC
2 setlinecap
10.0 ML
N
74 378 M
516 378 L
S
GR
GS
[0.75789 0 0 0.75789 0 -0.10529] CT
0.149 GC
2 setlinecap
10.0 ML
N
74 32 M
516 32 L
S
GR
GS
[0.75789 0 0 0.75789 0 -0.10529] CT
0.149 GC
2 setlinecap
10.0 ML
N
74 378 M
74 373.58 L
S
GR
GS
[0.75789 0 0 0.75789 0 -0.10529] CT
0.149 GC
2 setlinecap
10.0 ML
N
162.4 378 M
162.4 373.58 L
S
GR
GS
[0.75789 0 0 0.75789 0 -0.10529] CT
0.149 GC
2 setlinecap
10.0 ML
N
250.8 378 M
250.8 373.58 L
S
GR
GS
[0.75789 0 0 0.75789 0 -0.10529] CT
0.149 GC
2 setlinecap
10.0 ML
N
339.2 378 M
339.2 373.58 L
S
GR
GS
[0.75789 0 0 0.75789 0 -0.10529] CT
0.149 GC
2 setlinecap
10.0 ML
N
427.6 378 M
427.6 373.58 L
S
GR
GS
[0.75789 0 0 0.75789 0 -0.10529] CT
0.149 GC
2 setlinecap
10.0 ML
N
516 378 M
516 373.58 L
S
GR
GS
[0.75789 0 0 0.75789 0 -0.10529] CT
0.149 GC
2 setlinecap
10.0 ML
N
74 32 M
74 36.42 L
S
GR
GS
[0.75789 0 0 0.75789 0 -0.10529] CT
0.149 GC
2 setlinecap
10.0 ML
N
162.4 32 M
162.4 36.42 L
S
GR
GS
[0.75789 0 0 0.75789 0 -0.10529] CT
0.149 GC
2 setlinecap
10.0 ML
N
250.8 32 M
250.8 36.42 L
S
GR
GS
[0.75789 0 0 0.75789 0 -0.10529] CT
0.149 GC
2 setlinecap
10.0 ML
N
339.2 32 M
339.2 36.42 L
S
GR
GS
[0.75789 0 0 0.75789 0 -0.10529] CT
0.149 GC
2 setlinecap
10.0 ML
N
427.6 32 M
427.6 36.42 L
S
GR
GS
[0.75789 0 0 0.75789 0 -0.10529] CT
0.149 GC
2 setlinecap
10.0 ML
N
516 32 M
516 36.42 L
S
GR
GS
[0.75789 0 0 0.75789 56.08421 290.37894] CT
0.149 GC
/Helvetica 13 F
GS
[1 0 0 1 0 0] CT
-4.5 13 moveto 
1 -1 scale
(0) t 
GR
GR
GS
[0.75789 0 0 0.75789 123.0821 290.37894] CT
0.149 GC
/Helvetica 13 F
GS
[1 0 0 1 0 0] CT
-17 13 moveto 
1 -1 scale
(1000) t 
GR
GR
GS
[0.75789 0 0 0.75789 190.08 290.37894] CT
0.149 GC
/Helvetica 13 F
GS
[1 0 0 1 0 0] CT
-17 13 moveto 
1 -1 scale
(2000) t 
GR
GR
GS
[0.75789 0 0 0.75789 257.0779 290.37894] CT
0.149 GC
/Helvetica 13 F
GS
[1 0 0 1 0 0] CT
-17 13 moveto 
1 -1 scale
(3000) t 
GR
GR
GS
[0.75789 0 0 0.75789 324.07579 290.37894] CT
0.149 GC
/Helvetica 13 F
GS
[1 0 0 1 0 0] CT
-17 13 moveto 
1 -1 scale
(4000) t 
GR
GR
GS
[0.75789 0 0 0.75789 391.07368 290.37894] CT
0.149 GC
/Helvetica 13 F
GS
[1 0 0 1 0 0] CT
-17 13 moveto 
1 -1 scale
(5000) t 
GR
GR
GS
[0.75789 0 0 0.75789 0 -0.10529] CT
0.149 GC
2 setlinecap
10.0 ML
N
74 363.121 M
76.21 363.121 L
S
GR
GS
[0.75789 0 0 0.75789 0 -0.10529] CT
0.149 GC
2 setlinecap
10.0 ML
N
74 354.417 M
76.21 354.417 L
S
GR
GS
[0.75789 0 0 0.75789 0 -0.10529] CT
0.149 GC
2 setlinecap
10.0 ML
N
74 348.241 M
76.21 348.241 L
S
GR
GS
[0.75789 0 0 0.75789 0 -0.10529] CT
0.149 GC
2 setlinecap
10.0 ML
N
74 343.451 M
76.21 343.451 L
S
GR
GS
[0.75789 0 0 0.75789 0 -0.10529] CT
0.149 GC
2 setlinecap
10.0 ML
N
74 339.537 M
76.21 339.537 L
S
GR
GS
[0.75789 0 0 0.75789 0 -0.10529] CT
0.149 GC
2 setlinecap
10.0 ML
N
74 336.228 M
76.21 336.228 L
S
GR
GS
[0.75789 0 0 0.75789 0 -0.10529] CT
0.149 GC
2 setlinecap
10.0 ML
N
74 333.362 M
76.21 333.362 L
S
GR
GS
[0.75789 0 0 0.75789 0 -0.10529] CT
0.149 GC
2 setlinecap
10.0 ML
N
74 330.833 M
76.21 330.833 L
S
GR
GS
[0.75789 0 0 0.75789 0 -0.10529] CT
0.149 GC
2 setlinecap
10.0 ML
N
74 313.692 M
76.21 313.692 L
S
GR
GS
[0.75789 0 0 0.75789 0 -0.10529] CT
0.149 GC
2 setlinecap
10.0 ML
N
74 304.988 M
76.21 304.988 L
S
GR
GS
[0.75789 0 0 0.75789 0 -0.10529] CT
0.149 GC
2 setlinecap
10.0 ML
N
74 298.812 M
76.21 298.812 L
S
GR
GS
[0.75789 0 0 0.75789 0 -0.10529] CT
0.149 GC
2 setlinecap
10.0 ML
N
74 294.022 M
76.21 294.022 L
S
GR
GS
[0.75789 0 0 0.75789 0 -0.10529] CT
0.149 GC
2 setlinecap
10.0 ML
N
74 290.109 M
76.21 290.109 L
S
GR
GS
[0.75789 0 0 0.75789 0 -0.10529] CT
0.149 GC
2 setlinecap
10.0 ML
N
74 286.799 M
76.21 286.799 L
S
GR
GS
[0.75789 0 0 0.75789 0 -0.10529] CT
0.149 GC
2 setlinecap
10.0 ML
N
74 283.933 M
76.21 283.933 L
S
GR
GS
[0.75789 0 0 0.75789 0 -0.10529] CT
0.149 GC
2 setlinecap
10.0 ML
N
74 281.405 M
76.21 281.405 L
S
GR
GS
[0.75789 0 0 0.75789 0 -0.10529] CT
0.149 GC
2 setlinecap
10.0 ML
N
74 264.263 M
76.21 264.263 L
S
GR
GS
[0.75789 0 0 0.75789 0 -0.10529] CT
0.149 GC
2 setlinecap
10.0 ML
N
74 255.559 M
76.21 255.559 L
S
GR
GS
[0.75789 0 0 0.75789 0 -0.10529] CT
0.149 GC
2 setlinecap
10.0 ML
N
74 249.384 M
76.21 249.384 L
S
GR
GS
[0.75789 0 0 0.75789 0 -0.10529] CT
0.149 GC
2 setlinecap
10.0 ML
N
74 244.594 M
76.21 244.594 L
S
GR
GS
[0.75789 0 0 0.75789 0 -0.10529] CT
0.149 GC
2 setlinecap
10.0 ML
N
74 240.68 M
76.21 240.68 L
S
GR
GS
[0.75789 0 0 0.75789 0 -0.10529] CT
0.149 GC
2 setlinecap
10.0 ML
N
74 237.371 M
76.21 237.371 L
S
GR
GS
[0.75789 0 0 0.75789 0 -0.10529] CT
0.149 GC
2 setlinecap
10.0 ML
N
74 234.504 M
76.21 234.504 L
S
GR
GS
[0.75789 0 0 0.75789 0 -0.10529] CT
0.149 GC
2 setlinecap
10.0 ML
N
74 231.976 M
76.21 231.976 L
S
GR
GS
[0.75789 0 0 0.75789 0 -0.10529] CT
0.149 GC
2 setlinecap
10.0 ML
N
74 214.835 M
76.21 214.835 L
S
GR
GS
[0.75789 0 0 0.75789 0 -0.10529] CT
0.149 GC
2 setlinecap
10.0 ML
N
74 206.131 M
76.21 206.131 L
S
GR
GS
[0.75789 0 0 0.75789 0 -0.10529] CT
0.149 GC
2 setlinecap
10.0 ML
N
74 199.955 M
76.21 199.955 L
S
GR
GS
[0.75789 0 0 0.75789 0 -0.10529] CT
0.149 GC
2 setlinecap
10.0 ML
N
74 195.165 M
76.21 195.165 L
S
GR
GS
[0.75789 0 0 0.75789 0 -0.10529] CT
0.149 GC
2 setlinecap
10.0 ML
N
74 191.251 M
76.21 191.251 L
S
GR
GS
[0.75789 0 0 0.75789 0 -0.10529] CT
0.149 GC
2 setlinecap
10.0 ML
N
74 187.942 M
76.21 187.942 L
S
GR
GS
[0.75789 0 0 0.75789 0 -0.10529] CT
0.149 GC
2 setlinecap
10.0 ML
N
74 185.076 M
76.21 185.076 L
S
GR
GS
[0.75789 0 0 0.75789 0 -0.10529] CT
0.149 GC
2 setlinecap
10.0 ML
N
74 182.547 M
76.21 182.547 L
S
GR
GS
[0.75789 0 0 0.75789 0 -0.10529] CT
0.149 GC
2 setlinecap
10.0 ML
N
74 165.406 M
76.21 165.406 L
S
GR
GS
[0.75789 0 0 0.75789 0 -0.10529] CT
0.149 GC
2 setlinecap
10.0 ML
N
74 156.702 M
76.21 156.702 L
S
GR
GS
[0.75789 0 0 0.75789 0 -0.10529] CT
0.149 GC
2 setlinecap
10.0 ML
N
74 150.527 M
76.21 150.527 L
S
GR
GS
[0.75789 0 0 0.75789 0 -0.10529] CT
0.149 GC
2 setlinecap
10.0 ML
N
74 145.737 M
76.21 145.737 L
S
GR
GS
[0.75789 0 0 0.75789 0 -0.10529] CT
0.149 GC
2 setlinecap
10.0 ML
N
74 141.823 M
76.21 141.823 L
S
GR
GS
[0.75789 0 0 0.75789 0 -0.10529] CT
0.149 GC
2 setlinecap
10.0 ML
N
74 138.514 M
76.21 138.514 L
S
GR
GS
[0.75789 0 0 0.75789 0 -0.10529] CT
0.149 GC
2 setlinecap
10.0 ML
N
74 135.647 M
76.21 135.647 L
S
GR
GS
[0.75789 0 0 0.75789 0 -0.10529] CT
0.149 GC
2 setlinecap
10.0 ML
N
74 133.119 M
76.21 133.119 L
S
GR
GS
[0.75789 0 0 0.75789 0 -0.10529] CT
0.149 GC
2 setlinecap
10.0 ML
N
74 115.978 M
76.21 115.978 L
S
GR
GS
[0.75789 0 0 0.75789 0 -0.10529] CT
0.149 GC
2 setlinecap
10.0 ML
N
74 107.274 M
76.21 107.274 L
S
GR
GS
[0.75789 0 0 0.75789 0 -0.10529] CT
0.149 GC
2 setlinecap
10.0 ML
N
74 101.098 M
76.21 101.098 L
S
GR
GS
[0.75789 0 0 0.75789 0 -0.10529] CT
0.149 GC
2 setlinecap
10.0 ML
N
74 96.308 M
76.21 96.308 L
S
GR
GS
[0.75789 0 0 0.75789 0 -0.10529] CT
0.149 GC
2 setlinecap
10.0 ML
N
74 92.394 M
76.21 92.394 L
S
GR
GS
[0.75789 0 0 0.75789 0 -0.10529] CT
0.149 GC
2 setlinecap
10.0 ML
N
74 89.085 M
76.21 89.085 L
S
GR
GS
[0.75789 0 0 0.75789 0 -0.10529] CT
0.149 GC
2 setlinecap
10.0 ML
N
74 86.219 M
76.21 86.219 L
S
GR
GS
[0.75789 0 0 0.75789 0 -0.10529] CT
0.149 GC
2 setlinecap
10.0 ML
N
74 83.69 M
76.21 83.69 L
S
GR
GS
[0.75789 0 0 0.75789 0 -0.10529] CT
0.149 GC
2 setlinecap
10.0 ML
N
74 66.549 M
76.21 66.549 L
S
GR
GS
[0.75789 0 0 0.75789 0 -0.10529] CT
0.149 GC
2 setlinecap
10.0 ML
N
74 57.845 M
76.21 57.845 L
S
GR
GS
[0.75789 0 0 0.75789 0 -0.10529] CT
0.149 GC
2 setlinecap
10.0 ML
N
74 51.67 M
76.21 51.67 L
S
GR
GS
[0.75789 0 0 0.75789 0 -0.10529] CT
0.149 GC
2 setlinecap
10.0 ML
N
74 46.879 M
76.21 46.879 L
S
GR
GS
[0.75789 0 0 0.75789 0 -0.10529] CT
0.149 GC
2 setlinecap
10.0 ML
N
74 42.966 M
76.21 42.966 L
S
GR
GS
[0.75789 0 0 0.75789 0 -0.10529] CT
0.149 GC
2 setlinecap
10.0 ML
N
74 39.657 M
76.21 39.657 L
S
GR
GS
[0.75789 0 0 0.75789 0 -0.10529] CT
0.149 GC
2 setlinecap
10.0 ML
N
74 36.79 M
76.21 36.79 L
S
GR
GS
[0.75789 0 0 0.75789 0 -0.10529] CT
0.149 GC
2 setlinecap
10.0 ML
N
74 34.262 M
76.21 34.262 L
S
GR
GS
[0.75789 0 0 0.75789 0 -0.10529] CT
0.149 GC
2 setlinecap
10.0 ML
N
516 363.121 M
513.79 363.121 L
S
GR
GS
[0.75789 0 0 0.75789 0 -0.10529] CT
0.149 GC
2 setlinecap
10.0 ML
N
516 354.417 M
513.79 354.417 L
S
GR
GS
[0.75789 0 0 0.75789 0 -0.10529] CT
0.149 GC
2 setlinecap
10.0 ML
N
516 348.241 M
513.79 348.241 L
S
GR
GS
[0.75789 0 0 0.75789 0 -0.10529] CT
0.149 GC
2 setlinecap
10.0 ML
N
516 343.451 M
513.79 343.451 L
S
GR
GS
[0.75789 0 0 0.75789 0 -0.10529] CT
0.149 GC
2 setlinecap
10.0 ML
N
516 339.537 M
513.79 339.537 L
S
GR
GS
[0.75789 0 0 0.75789 0 -0.10529] CT
0.149 GC
2 setlinecap
10.0 ML
N
516 336.228 M
513.79 336.228 L
S
GR
GS
[0.75789 0 0 0.75789 0 -0.10529] CT
0.149 GC
2 setlinecap
10.0 ML
N
516 333.362 M
513.79 333.362 L
S
GR
GS
[0.75789 0 0 0.75789 0 -0.10529] CT
0.149 GC
2 setlinecap
10.0 ML
N
516 330.833 M
513.79 330.833 L
S
GR
GS
[0.75789 0 0 0.75789 0 -0.10529] CT
0.149 GC
2 setlinecap
10.0 ML
N
516 313.692 M
513.79 313.692 L
S
GR
GS
[0.75789 0 0 0.75789 0 -0.10529] CT
0.149 GC
2 setlinecap
10.0 ML
N
516 304.988 M
513.79 304.988 L
S
GR
GS
[0.75789 0 0 0.75789 0 -0.10529] CT
0.149 GC
2 setlinecap
10.0 ML
N
516 298.812 M
513.79 298.812 L
S
GR
GS
[0.75789 0 0 0.75789 0 -0.10529] CT
0.149 GC
2 setlinecap
10.0 ML
N
516 294.022 M
513.79 294.022 L
S
GR
GS
[0.75789 0 0 0.75789 0 -0.10529] CT
0.149 GC
2 setlinecap
10.0 ML
N
516 290.109 M
513.79 290.109 L
S
GR
GS
[0.75789 0 0 0.75789 0 -0.10529] CT
0.149 GC
2 setlinecap
10.0 ML
N
516 286.799 M
513.79 286.799 L
S
GR
GS
[0.75789 0 0 0.75789 0 -0.10529] CT
0.149 GC
2 setlinecap
10.0 ML
N
516 283.933 M
513.79 283.933 L
S
GR
GS
[0.75789 0 0 0.75789 0 -0.10529] CT
0.149 GC
2 setlinecap
10.0 ML
N
516 281.405 M
513.79 281.405 L
S
GR
GS
[0.75789 0 0 0.75789 0 -0.10529] CT
0.149 GC
2 setlinecap
10.0 ML
N
516 264.263 M
513.79 264.263 L
S
GR
GS
[0.75789 0 0 0.75789 0 -0.10529] CT
0.149 GC
2 setlinecap
10.0 ML
N
516 255.559 M
513.79 255.559 L
S
GR
GS
[0.75789 0 0 0.75789 0 -0.10529] CT
0.149 GC
2 setlinecap
10.0 ML
N
516 249.384 M
513.79 249.384 L
S
GR
GS
[0.75789 0 0 0.75789 0 -0.10529] CT
0.149 GC
2 setlinecap
10.0 ML
N
516 244.594 M
513.79 244.594 L
S
GR
GS
[0.75789 0 0 0.75789 0 -0.10529] CT
0.149 GC
2 setlinecap
10.0 ML
N
516 240.68 M
513.79 240.68 L
S
GR
GS
[0.75789 0 0 0.75789 0 -0.10529] CT
0.149 GC
2 setlinecap
10.0 ML
N
516 237.371 M
513.79 237.371 L
S
GR
GS
[0.75789 0 0 0.75789 0 -0.10529] CT
0.149 GC
2 setlinecap
10.0 ML
N
516 234.504 M
513.79 234.504 L
S
GR
GS
[0.75789 0 0 0.75789 0 -0.10529] CT
0.149 GC
2 setlinecap
10.0 ML
N
516 231.976 M
513.79 231.976 L
S
GR
GS
[0.75789 0 0 0.75789 0 -0.10529] CT
0.149 GC
2 setlinecap
10.0 ML
N
516 214.835 M
513.79 214.835 L
S
GR
GS
[0.75789 0 0 0.75789 0 -0.10529] CT
0.149 GC
2 setlinecap
10.0 ML
N
516 206.131 M
513.79 206.131 L
S
GR
GS
[0.75789 0 0 0.75789 0 -0.10529] CT
0.149 GC
2 setlinecap
10.0 ML
N
516 199.955 M
513.79 199.955 L
S
GR
GS
[0.75789 0 0 0.75789 0 -0.10529] CT
0.149 GC
2 setlinecap
10.0 ML
N
516 195.165 M
513.79 195.165 L
S
GR
GS
[0.75789 0 0 0.75789 0 -0.10529] CT
0.149 GC
2 setlinecap
10.0 ML
N
516 191.251 M
513.79 191.251 L
S
GR
GS
[0.75789 0 0 0.75789 0 -0.10529] CT
0.149 GC
2 setlinecap
10.0 ML
N
516 187.942 M
513.79 187.942 L
S
GR
GS
[0.75789 0 0 0.75789 0 -0.10529] CT
0.149 GC
2 setlinecap
10.0 ML
N
516 185.076 M
513.79 185.076 L
S
GR
GS
[0.75789 0 0 0.75789 0 -0.10529] CT
0.149 GC
2 setlinecap
10.0 ML
N
516 182.547 M
513.79 182.547 L
S
GR
GS
[0.75789 0 0 0.75789 0 -0.10529] CT
0.149 GC
2 setlinecap
10.0 ML
N
516 165.406 M
513.79 165.406 L
S
GR
GS
[0.75789 0 0 0.75789 0 -0.10529] CT
0.149 GC
2 setlinecap
10.0 ML
N
516 156.702 M
513.79 156.702 L
S
GR
GS
[0.75789 0 0 0.75789 0 -0.10529] CT
0.149 GC
2 setlinecap
10.0 ML
N
516 150.527 M
513.79 150.527 L
S
GR
GS
[0.75789 0 0 0.75789 0 -0.10529] CT
0.149 GC
2 setlinecap
10.0 ML
N
516 145.737 M
513.79 145.737 L
S
GR
GS
[0.75789 0 0 0.75789 0 -0.10529] CT
0.149 GC
2 setlinecap
10.0 ML
N
516 141.823 M
513.79 141.823 L
S
GR
GS
[0.75789 0 0 0.75789 0 -0.10529] CT
0.149 GC
2 setlinecap
10.0 ML
N
516 138.514 M
513.79 138.514 L
S
GR
GS
[0.75789 0 0 0.75789 0 -0.10529] CT
0.149 GC
2 setlinecap
10.0 ML
N
516 135.647 M
513.79 135.647 L
S
GR
GS
[0.75789 0 0 0.75789 0 -0.10529] CT
0.149 GC
2 setlinecap
10.0 ML
N
516 133.119 M
513.79 133.119 L
S
GR
GS
[0.75789 0 0 0.75789 0 -0.10529] CT
0.149 GC
2 setlinecap
10.0 ML
N
516 115.978 M
513.79 115.978 L
S
GR
GS
[0.75789 0 0 0.75789 0 -0.10529] CT
0.149 GC
2 setlinecap
10.0 ML
N
516 107.274 M
513.79 107.274 L
S
GR
GS
[0.75789 0 0 0.75789 0 -0.10529] CT
0.149 GC
2 setlinecap
10.0 ML
N
516 101.098 M
513.79 101.098 L
S
GR
GS
[0.75789 0 0 0.75789 0 -0.10529] CT
0.149 GC
2 setlinecap
10.0 ML
N
516 96.308 M
513.79 96.308 L
S
GR
GS
[0.75789 0 0 0.75789 0 -0.10529] CT
0.149 GC
2 setlinecap
10.0 ML
N
516 92.394 M
513.79 92.394 L
S
GR
GS
[0.75789 0 0 0.75789 0 -0.10529] CT
0.149 GC
2 setlinecap
10.0 ML
N
516 89.085 M
513.79 89.085 L
S
GR
GS
[0.75789 0 0 0.75789 0 -0.10529] CT
0.149 GC
2 setlinecap
10.0 ML
N
516 86.219 M
513.79 86.219 L
S
GR
GS
[0.75789 0 0 0.75789 0 -0.10529] CT
0.149 GC
2 setlinecap
10.0 ML
N
516 83.69 M
513.79 83.69 L
S
GR
GS
[0.75789 0 0 0.75789 0 -0.10529] CT
0.149 GC
2 setlinecap
10.0 ML
N
516 66.549 M
513.79 66.549 L
S
GR
GS
[0.75789 0 0 0.75789 0 -0.10529] CT
0.149 GC
2 setlinecap
10.0 ML
N
516 57.845 M
513.79 57.845 L
S
GR
GS
[0.75789 0 0 0.75789 0 -0.10529] CT
0.149 GC
2 setlinecap
10.0 ML
N
516 51.67 M
513.79 51.67 L
S
GR
GS
[0.75789 0 0 0.75789 0 -0.10529] CT
0.149 GC
2 setlinecap
10.0 ML
N
516 46.879 M
513.79 46.879 L
S
GR
GS
[0.75789 0 0 0.75789 0 -0.10529] CT
0.149 GC
2 setlinecap
10.0 ML
N
516 42.966 M
513.79 42.966 L
S
GR
GS
[0.75789 0 0 0.75789 0 -0.10529] CT
0.149 GC
2 setlinecap
10.0 ML
N
516 39.657 M
513.79 39.657 L
S
GR
GS
[0.75789 0 0 0.75789 0 -0.10529] CT
0.149 GC
2 setlinecap
10.0 ML
N
516 36.79 M
513.79 36.79 L
S
GR
GS
[0.75789 0 0 0.75789 0 -0.10529] CT
0.149 GC
2 setlinecap
10.0 ML
N
516 34.262 M
513.79 34.262 L
S
GR
GS
[0 -0.75789 0.75789 0 30.89474 155.26302] CT
0.149 GC
/Helvetica 15 F
GS
[1 0 0 1 0 0] CT
-87.5 -4 moveto 
1 -1 scale
(Runtime in miliseconds) t 
GR
GR
GS
[0.75789 0 0 0.75789 0 -0.10529] CT
0.149 GC
2 setlinecap
10.0 ML
N
74 378 M
74 32 L
S
GR
GS
[0.75789 0 0 0.75789 0 -0.10529] CT
0.149 GC
2 setlinecap
10.0 ML
N
516 378 M
516 32 L
S
GR
GS
[0.75789 0 0 0.75789 0 -0.10529] CT
0.149 GC
2 setlinecap
10.0 ML
N
74 378 M
78.42 378 L
S
GR
GS
[0.75789 0 0 0.75789 0 -0.10529] CT
0.149 GC
2 setlinecap
10.0 ML
N
74 328.571 M
78.42 328.571 L
S
GR
GS
[0.75789 0 0 0.75789 0 -0.10529] CT
0.149 GC
2 setlinecap
10.0 ML
N
74 279.143 M
78.42 279.143 L
S
GR
GS
[0.75789 0 0 0.75789 0 -0.10529] CT
0.149 GC
2 setlinecap
10.0 ML
N
74 229.714 M
78.42 229.714 L
S
GR
GS
[0.75789 0 0 0.75789 0 -0.10529] CT
0.149 GC
2 setlinecap
10.0 ML
N
74 180.286 M
78.42 180.286 L
S
GR
GS
[0.75789 0 0 0.75789 0 -0.10529] CT
0.149 GC
2 setlinecap
10.0 ML
N
74 130.857 M
78.42 130.857 L
S
GR
GS
[0.75789 0 0 0.75789 0 -0.10529] CT
0.149 GC
2 setlinecap
10.0 ML
N
74 81.429 M
78.42 81.429 L
S
GR
GS
[0.75789 0 0 0.75789 0 -0.10529] CT
0.149 GC
2 setlinecap
10.0 ML
N
74 32 M
78.42 32 L
S
GR
GS
[0.75789 0 0 0.75789 0 -0.10529] CT
0.149 GC
2 setlinecap
10.0 ML
N
516 378 M
511.58 378 L
S
GR
GS
[0.75789 0 0 0.75789 0 -0.10529] CT
0.149 GC
2 setlinecap
10.0 ML
N
516 328.571 M
511.58 328.571 L
S
GR
GS
[0.75789 0 0 0.75789 0 -0.10529] CT
0.149 GC
2 setlinecap
10.0 ML
N
516 279.143 M
511.58 279.143 L
S
GR
GS
[0.75789 0 0 0.75789 0 -0.10529] CT
0.149 GC
2 setlinecap
10.0 ML
N
516 229.714 M
511.58 229.714 L
S
GR
GS
[0.75789 0 0 0.75789 0 -0.10529] CT
0.149 GC
2 setlinecap
10.0 ML
N
516 180.286 M
511.58 180.286 L
S
GR
GS
[0.75789 0 0 0.75789 0 -0.10529] CT
0.149 GC
2 setlinecap
10.0 ML
N
516 130.857 M
511.58 130.857 L
S
GR
GS
[0.75789 0 0 0.75789 0 -0.10529] CT
0.149 GC
2 setlinecap
10.0 ML
N
516 81.429 M
511.58 81.429 L
S
GR
GS
[0.75789 0 0 0.75789 0 -0.10529] CT
0.149 GC
2 setlinecap
10.0 ML
N
516 32 M
511.58 32 L
S
GR
GS
[0.75789 0 0 0.75789 34.10526 291.68421] CT
0.149 GC
/Helvetica 13 F
GS
[1 0 0 1 0 0] CT
0 0 moveto 
1 -1 scale
(10) t 
GR
GR
GS
[0.75789 0 0 0.75789 46.98947 287.13684] CT
0.149 GC
/Helvetica 11 F
GS
[1 0 0 1 0 0] CT
0 0 moveto 
1 -1 scale
(0) t 
GR
GR
GS
[0.75789 0 0 0.75789 34.10526 254.54736] CT
0.149 GC
/Helvetica 13 F
GS
[1 0 0 1 0 0] CT
0 0 moveto 
1 -1 scale
(10) t 
GR
GR
GS
[0.75789 0 0 0.75789 46.98947 249.99999] CT
0.149 GC
/Helvetica 11 F
GS
[1 0 0 1 0 0] CT
0 0 moveto 
1 -1 scale
(1) t 
GR
GR
GS
[0.75789 0 0 0.75789 34.10526 216.65262] CT
0.149 GC
/Helvetica 13 F
GS
[1 0 0 1 0 0] CT
0 0 moveto 
1 -1 scale
(10) t 
GR
GR
GS
[0.75789 0 0 0.75789 46.98947 212.10526] CT
0.149 GC
/Helvetica 11 F
GS
[1 0 0 1 0 0] CT
0 0 moveto 
1 -1 scale
(2) t 
GR
GR
GS
[0.75789 0 0 0.75789 34.10526 179.51578] CT
0.149 GC
/Helvetica 13 F
GS
[1 0 0 1 0 0] CT
0 0 moveto 
1 -1 scale
(10) t 
GR
GR
GS
[0.75789 0 0 0.75789 46.98947 174.96841] CT
0.149 GC
/Helvetica 11 F
GS
[1 0 0 1 0 0] CT
0 0 moveto 
1 -1 scale
(3) t 
GR
GR
GS
[0.75789 0 0 0.75789 34.10526 141.62104] CT
0.149 GC
/Helvetica 13 F
GS
[1 0 0 1 0 0] CT
0 0 moveto 
1 -1 scale
(10) t 
GR
GR
GS
[0.75789 0 0 0.75789 46.98947 137.07367] CT
0.149 GC
/Helvetica 11 F
GS
[1 0 0 1 0 0] CT
0 0 moveto 
1 -1 scale
(4) t 
GR
GR
GS
[0.75789 0 0 0.75789 34.10526 104.4842] CT
0.149 GC
/Helvetica 13 F
GS
[1 0 0 1 0 0] CT
0 0 moveto 
1 -1 scale
(10) t 
GR
GR
GS
[0.75789 0 0 0.75789 46.98947 99.93683] CT
0.149 GC
/Helvetica 11 F
GS
[1 0 0 1 0 0] CT
0 0 moveto 
1 -1 scale
(5) t 
GR
GR
GS
[0.75789 0 0 0.75789 34.10526 66.58946] CT
0.149 GC
/Helvetica 13 F
GS
[1 0 0 1 0 0] CT
0 0 moveto 
1 -1 scale
(10) t 
GR
GR
GS
[0.75789 0 0 0.75789 46.98947 62.04209] CT
0.149 GC
/Helvetica 11 F
GS
[1 0 0 1 0 0] CT
0 0 moveto 
1 -1 scale
(6) t 
GR
GR
GS
[0.75789 0 0 0.75789 34.10526 29.45261] CT
0.149 GC
/Helvetica 13 F
GS
[1 0 0 1 0 0] CT
0 0 moveto 
1 -1 scale
(10) t 
GR
GR
GS
[0.75789 0 0 0.75789 46.98947 24.90524] CT
0.149 GC
/Helvetica 11 F
GS
[1 0 0 1 0 0] CT
0 0 moveto 
1 -1 scale
(7) t 
GR
GR
GS
[0.75789 0 0 0.75789 0 -0.10529] CT
0 0.447 0.741 RC
2 setlinecap
10.0 ML
N
74.884 339.537 M
82.84 330.833 L
118.2 285.899 L
162.4 261.17 L
295 224.449 L
516 194.036 L
S
GR
GS
[0.75789 0 0 0.75789 0 -0.10529] CT
0.851 0.325 0.098 RC
2 setlinecap
10.0 ML
N
74.884 326.525 M
82.84 277.097 L
118.2 232.483 L
162.4 192.778 L
295 121.596 L
516 77.727 L
S
GR
GS
[0.75789 0 0 0.75789 0 -0.10529] CT
1 GC
N
318 72 M
318 36 L
512 36 L
512 72 L
cp
f
GR
GS
[0.75789 0 0 0.75789 280.12815 34.8765] CT
/Helvetica 12 F
GS
[1 0 0 1 0 0] CT
0 4.5 moveto 
1 -1 scale
(Nvidia GeForce 650gtx) t 
GR
GR
GS
[0.75789 0 0 0.75789 0 -0.10529] CT
0 0.447 0.741 RC
2 setlinecap
10.0 ML
N
325.941 46.157 M
365.643 46.157 L
S
GR
GS
[0.75789 0 0 0.75789 280.12815 46.76556] CT
/Helvetica 12 F
GS
[1 0 0 1 0 0] CT
0 4.5 moveto 
1 -1 scale
(Intel i7-3820) t 
GR
GR
GS
[0.75789 0 0 0.75789 0 -0.10529] CT
0.851 0.325 0.098 RC
2 setlinecap
10.0 ML
N
325.941 61.843 M
365.643 61.843 L
S
GR
GS
[0.75789 0 0 0.75789 0 -0.10529] CT
0.149 GC
2 setlinecap
10.0 ML
N
318 72 M
318 36 L
512 36 L
512 72 L
318 72 L
S
GR
%%Trailer
%%Pages: 1
%%EOF
