%!PS-Adobe-3.0 EPSF-3.0
%%Creator: (MATLAB, The Mathworks, Inc. Version 8.5.0.197613 \(R2015a\). Operating System: Linux)
%%Title: /home/dormage/Documents/papers/opencl/figures/radeon_vs_amd.eps
%%CreationDate: 2016-08-31T13:24:26
%%Pages: (atend)
%%BoundingBox: 0 0 481 409
%%LanguageLevel: 2
%%EndComments
%%BeginProlog
%%BeginResource: procset (Apache XML Graphics Std ProcSet) 1.2 0
%%Version: 1.2 0
%%Copyright: (Copyright 2001-2003,2010 The Apache Software Foundation. License terms: http://www.apache.org/licenses/LICENSE-2.0)
/bd{bind def}bind def
/ld{load def}bd
/GR/grestore ld
/M/moveto ld
/LJ/setlinejoin ld
/C/curveto ld
/f/fill ld
/LW/setlinewidth ld
/GC/setgray ld
/t/show ld
/N/newpath ld
/CT/concat ld
/cp/closepath ld
/S/stroke ld
/L/lineto ld
/CC/setcmykcolor ld
/A/ashow ld
/GS/gsave ld
/RC/setrgbcolor ld
/RM/rmoveto ld
/ML/setmiterlimit ld
/re {4 2 roll M
1 index 0 rlineto
0 exch rlineto
neg 0 rlineto
cp } bd
/_ctm matrix def
/_tm matrix def
/BT { _ctm currentmatrix pop matrix _tm copy pop 0 0 moveto } bd
/ET { _ctm setmatrix } bd
/iTm { _ctm setmatrix _tm concat } bd
/Tm { _tm astore pop iTm 0 0 moveto } bd
/ux 0.0 def
/uy 0.0 def
/F {
  /Tp exch def
  /Tf exch def
  Tf findfont Tp scalefont setfont
  /cf Tf def  /cs Tp def
} bd
/ULS {currentpoint /uy exch def /ux exch def} bd
/ULE {
  /Tcx currentpoint pop def
  gsave
  newpath
  cf findfont cs scalefont dup
  /FontMatrix get 0 get /Ts exch def /FontInfo get dup
  /UnderlinePosition get Ts mul /To exch def
  /UnderlineThickness get Ts mul /Tt exch def
  ux uy To add moveto  Tcx uy To add lineto
  Tt setlinewidth stroke
  grestore
} bd
/OLE {
  /Tcx currentpoint pop def
  gsave
  newpath
  cf findfont cs scalefont dup
  /FontMatrix get 0 get /Ts exch def /FontInfo get dup
  /UnderlinePosition get Ts mul /To exch def
  /UnderlineThickness get Ts mul /Tt exch def
  ux uy To add cs add moveto Tcx uy To add cs add lineto
  Tt setlinewidth stroke
  grestore
} bd
/SOE {
  /Tcx currentpoint pop def
  gsave
  newpath
  cf findfont cs scalefont dup
  /FontMatrix get 0 get /Ts exch def /FontInfo get dup
  /UnderlinePosition get Ts mul /To exch def
  /UnderlineThickness get Ts mul /Tt exch def
  ux uy To add cs 10 mul 26 idiv add moveto Tcx uy To add cs 10 mul 26 idiv add lineto
  Tt setlinewidth stroke
  grestore
} bd
/QT {
/Y22 exch store
/X22 exch store
/Y21 exch store
/X21 exch store
currentpoint
/Y21 load 2 mul add 3 div exch
/X21 load 2 mul add 3 div exch
/X21 load 2 mul /X22 load add 3 div
/Y21 load 2 mul /Y22 load add 3 div
/X22 load /Y22 load curveto
} bd
/SSPD {
dup length /d exch dict def
{
/v exch def
/k exch def
currentpagedevice k known {
/cpdv currentpagedevice k get def
v cpdv ne {
/upd false def
/nullv v type /nulltype eq def
/nullcpdv cpdv type /nulltype eq def
nullv nullcpdv or
{
/upd true def
} {
/sametype v type cpdv type eq def
sametype {
v type /arraytype eq {
/vlen v length def
/cpdvlen cpdv length def
vlen cpdvlen eq {
0 1 vlen 1 sub {
/i exch def
/obj v i get def
/cpdobj cpdv i get def
obj cpdobj ne {
/upd true def
exit
} if
} for
} {
/upd true def
} ifelse
} {
v type /dicttype eq {
v {
/dv exch def
/dk exch def
/cpddv cpdv dk get def
dv cpddv ne {
/upd true def
exit
} if
} forall
} {
/upd true def
} ifelse
} ifelse
} if
} ifelse
upd true eq {
d k v put
} if
} if
} if
} forall
d length 0 gt {
d setpagedevice
} if
} bd
%%EndResource
%%BeginResource: procset (Apache XML Graphics EPS ProcSet) 1.0 0
%%Version: 1.0 0
%%Copyright: (Copyright 2002-2003 The Apache Software Foundation. License terms: http://www.apache.org/licenses/LICENSE-2.0)
/BeginEPSF { %def
/b4_Inc_state save def         % Save state for cleanup
/dict_count countdictstack def % Count objects on dict stack
/op_count count 1 sub def      % Count objects on operand stack
userdict begin                 % Push userdict on dict stack
/showpage { } def              % Redefine showpage, { } = null proc
0 setgray 0 setlinecap         % Prepare graphics state
1 setlinewidth 0 setlinejoin
10 setmiterlimit [ ] 0 setdash newpath
/languagelevel where           % If level not equal to 1 then
{pop languagelevel             % set strokeadjust and
1 ne                           % overprint to their defaults.
{false setstrokeadjust false setoverprint
} if
} if
} bd
/EndEPSF { %def
count op_count sub {pop} repeat            % Clean up stacks
countdictstack dict_count sub {end} repeat
b4_Inc_state restore
} bd
%%EndResource
%FOPBeginFontDict
%%IncludeResource: font Courier-Bold
%%IncludeResource: font Helvetica
%%IncludeResource: font Courier-BoldOblique
%%IncludeResource: font Courier-Oblique
%%IncludeResource: font Times-Roman
%%IncludeResource: font Helvetica-BoldOblique
%%IncludeResource: font Helvetica-Bold
%%IncludeResource: font Helvetica-Oblique
%%IncludeResource: font Times-BoldItalic
%%IncludeResource: font Courier
%%IncludeResource: font Times-Italic
%%IncludeResource: font Times-Bold
%%IncludeResource: font Symbol
%%IncludeResource: font ZapfDingbats
%FOPEndFontDict
%%BeginResource: encoding WinAnsiEncoding
/WinAnsiEncoding [
/.notdef /.notdef /.notdef /.notdef /.notdef
/.notdef /.notdef /.notdef /.notdef /.notdef
/.notdef /.notdef /.notdef /.notdef /.notdef
/.notdef /.notdef /.notdef /.notdef /.notdef
/.notdef /.notdef /.notdef /.notdef /.notdef
/.notdef /.notdef /.notdef /.notdef /.notdef
/.notdef /.notdef /space /exclam /quotedbl
/numbersign /dollar /percent /ampersand /quotesingle
/parenleft /parenright /asterisk /plus /comma
/hyphen /period /slash /zero /one
/two /three /four /five /six
/seven /eight /nine /colon /semicolon
/less /equal /greater /question /at
/A /B /C /D /E
/F /G /H /I /J
/K /L /M /N /O
/P /Q /R /S /T
/U /V /W /X /Y
/Z /bracketleft /backslash /bracketright /asciicircum
/underscore /quoteleft /a /b /c
/d /e /f /g /h
/i /j /k /l /m
/n /o /p /q /r
/s /t /u /v /w
/x /y /z /braceleft /bar
/braceright /asciitilde /bullet /Euro /bullet
/quotesinglbase /florin /quotedblbase /ellipsis /dagger
/daggerdbl /circumflex /perthousand /Scaron /guilsinglleft
/OE /bullet /Zcaron /bullet /bullet
/quoteleft /quoteright /quotedblleft /quotedblright /bullet
/endash /emdash /asciitilde /trademark /scaron
/guilsinglright /oe /bullet /zcaron /Ydieresis
/space /exclamdown /cent /sterling /currency
/yen /brokenbar /section /dieresis /copyright
/ordfeminine /guillemotleft /logicalnot /sfthyphen /registered
/macron /degree /plusminus /twosuperior /threesuperior
/acute /mu /paragraph /middot /cedilla
/onesuperior /ordmasculine /guillemotright /onequarter /onehalf
/threequarters /questiondown /Agrave /Aacute /Acircumflex
/Atilde /Adieresis /Aring /AE /Ccedilla
/Egrave /Eacute /Ecircumflex /Edieresis /Igrave
/Iacute /Icircumflex /Idieresis /Eth /Ntilde
/Ograve /Oacute /Ocircumflex /Otilde /Odieresis
/multiply /Oslash /Ugrave /Uacute /Ucircumflex
/Udieresis /Yacute /Thorn /germandbls /agrave
/aacute /acircumflex /atilde /adieresis /aring
/ae /ccedilla /egrave /eacute /ecircumflex
/edieresis /igrave /iacute /icircumflex /idieresis
/eth /ntilde /ograve /oacute /ocircumflex
/otilde /odieresis /divide /oslash /ugrave
/uacute /ucircumflex /udieresis /yacute /thorn
/ydieresis
] def
%%EndResource
%FOPBeginFontReencode
/Courier-Bold findfont
dup length dict begin
  {1 index /FID ne {def} {pop pop} ifelse} forall
  /Encoding WinAnsiEncoding def
  currentdict
end
/Courier-Bold exch definefont pop
/Helvetica findfont
dup length dict begin
  {1 index /FID ne {def} {pop pop} ifelse} forall
  /Encoding WinAnsiEncoding def
  currentdict
end
/Helvetica exch definefont pop
/Courier-BoldOblique findfont
dup length dict begin
  {1 index /FID ne {def} {pop pop} ifelse} forall
  /Encoding WinAnsiEncoding def
  currentdict
end
/Courier-BoldOblique exch definefont pop
/Courier-Oblique findfont
dup length dict begin
  {1 index /FID ne {def} {pop pop} ifelse} forall
  /Encoding WinAnsiEncoding def
  currentdict
end
/Courier-Oblique exch definefont pop
/Times-Roman findfont
dup length dict begin
  {1 index /FID ne {def} {pop pop} ifelse} forall
  /Encoding WinAnsiEncoding def
  currentdict
end
/Times-Roman exch definefont pop
/Helvetica-BoldOblique findfont
dup length dict begin
  {1 index /FID ne {def} {pop pop} ifelse} forall
  /Encoding WinAnsiEncoding def
  currentdict
end
/Helvetica-BoldOblique exch definefont pop
/Helvetica-Bold findfont
dup length dict begin
  {1 index /FID ne {def} {pop pop} ifelse} forall
  /Encoding WinAnsiEncoding def
  currentdict
end
/Helvetica-Bold exch definefont pop
/Helvetica-Oblique findfont
dup length dict begin
  {1 index /FID ne {def} {pop pop} ifelse} forall
  /Encoding WinAnsiEncoding def
  currentdict
end
/Helvetica-Oblique exch definefont pop
/Times-BoldItalic findfont
dup length dict begin
  {1 index /FID ne {def} {pop pop} ifelse} forall
  /Encoding WinAnsiEncoding def
  currentdict
end
/Times-BoldItalic exch definefont pop
/Courier findfont
dup length dict begin
  {1 index /FID ne {def} {pop pop} ifelse} forall
  /Encoding WinAnsiEncoding def
  currentdict
end
/Courier exch definefont pop
/Times-Italic findfont
dup length dict begin
  {1 index /FID ne {def} {pop pop} ifelse} forall
  /Encoding WinAnsiEncoding def
  currentdict
end
/Times-Italic exch definefont pop
/Times-Bold findfont
dup length dict begin
  {1 index /FID ne {def} {pop pop} ifelse} forall
  /Encoding WinAnsiEncoding def
  currentdict
end
/Times-Bold exch definefont pop
%FOPEndFontReencode
%%EndProlog
%%Page: 1 1
%%PageBoundingBox: 0 0 481 409
%%BeginPageSetup
[1 0 0 -1 0 409] CT
%%EndPageSetup
GS
[0.75789 0 0 0.75789 0 0.49475] CT
N
0 0 M
634 0 L
634 539 L
0 539 L
0 0 L
cp
clip
1 GC
N
0 0 634 539 re
f
GR
GS
[0.75789 0 0 0.75789 0 0.49475] CT
1 GC
N
0 0 634 539 re
f
GR
GS
[0.75789 0 0 0.75789 0 0.49475] CT
1 GC
N
82 480 M
574 480 L
574 40 L
82 40 L
cp
f
GR
GS
[0.75789 0 0 0.75789 248.58965 382.16843] CT
0.149 GC
/Helvetica 15 F
GS
[1 0 0 1 0 0] CT
-49 14 moveto 
1 -1 scale
(Problem Size) t 
GR
GR
GS
[0.75789 0 0 0.75789 0 0.49475] CT
0.149 GC
2 setlinecap
10.0 ML
N
82 480 M
574 480 L
S
GR
GS
[0.75789 0 0 0.75789 0 0.49475] CT
0.149 GC
2 setlinecap
10.0 ML
N
82 40 M
574 40 L
S
GR
GS
[0.75789 0 0 0.75789 0 0.49475] CT
0.149 GC
2 setlinecap
10.0 ML
N
82 480 M
82 475.08 L
S
GR
GS
[0.75789 0 0 0.75789 0 0.49475] CT
0.149 GC
2 setlinecap
10.0 ML
N
131.2 480 M
131.2 475.08 L
S
GR
GS
[0.75789 0 0 0.75789 0 0.49475] CT
0.149 GC
2 setlinecap
10.0 ML
N
180.4 480 M
180.4 475.08 L
S
GR
GS
[0.75789 0 0 0.75789 0 0.49475] CT
0.149 GC
2 setlinecap
10.0 ML
N
229.6 480 M
229.6 475.08 L
S
GR
GS
[0.75789 0 0 0.75789 0 0.49475] CT
0.149 GC
2 setlinecap
10.0 ML
N
278.8 480 M
278.8 475.08 L
S
GR
GS
[0.75789 0 0 0.75789 0 0.49475] CT
0.149 GC
2 setlinecap
10.0 ML
N
328 480 M
328 475.08 L
S
GR
GS
[0.75789 0 0 0.75789 0 0.49475] CT
0.149 GC
2 setlinecap
10.0 ML
N
377.2 480 M
377.2 475.08 L
S
GR
GS
[0.75789 0 0 0.75789 0 0.49475] CT
0.149 GC
2 setlinecap
10.0 ML
N
426.4 480 M
426.4 475.08 L
S
GR
GS
[0.75789 0 0 0.75789 0 0.49475] CT
0.149 GC
2 setlinecap
10.0 ML
N
475.6 480 M
475.6 475.08 L
S
GR
GS
[0.75789 0 0 0.75789 0 0.49475] CT
0.149 GC
2 setlinecap
10.0 ML
N
524.8 480 M
524.8 475.08 L
S
GR
GS
[0.75789 0 0 0.75789 0 0.49475] CT
0.149 GC
2 setlinecap
10.0 ML
N
574 480 M
574 475.08 L
S
GR
GS
[0.75789 0 0 0.75789 0 0.49475] CT
0.149 GC
2 setlinecap
10.0 ML
N
82 40 M
82 44.92 L
S
GR
GS
[0.75789 0 0 0.75789 0 0.49475] CT
0.149 GC
2 setlinecap
10.0 ML
N
131.2 40 M
131.2 44.92 L
S
GR
GS
[0.75789 0 0 0.75789 0 0.49475] CT
0.149 GC
2 setlinecap
10.0 ML
N
180.4 40 M
180.4 44.92 L
S
GR
GS
[0.75789 0 0 0.75789 0 0.49475] CT
0.149 GC
2 setlinecap
10.0 ML
N
229.6 40 M
229.6 44.92 L
S
GR
GS
[0.75789 0 0 0.75789 0 0.49475] CT
0.149 GC
2 setlinecap
10.0 ML
N
278.8 40 M
278.8 44.92 L
S
GR
GS
[0.75789 0 0 0.75789 0 0.49475] CT
0.149 GC
2 setlinecap
10.0 ML
N
328 40 M
328 44.92 L
S
GR
GS
[0.75789 0 0 0.75789 0 0.49475] CT
0.149 GC
2 setlinecap
10.0 ML
N
377.2 40 M
377.2 44.92 L
S
GR
GS
[0.75789 0 0 0.75789 0 0.49475] CT
0.149 GC
2 setlinecap
10.0 ML
N
426.4 40 M
426.4 44.92 L
S
GR
GS
[0.75789 0 0 0.75789 0 0.49475] CT
0.149 GC
2 setlinecap
10.0 ML
N
475.6 40 M
475.6 44.92 L
S
GR
GS
[0.75789 0 0 0.75789 0 0.49475] CT
0.149 GC
2 setlinecap
10.0 ML
N
524.8 40 M
524.8 44.92 L
S
GR
GS
[0.75789 0 0 0.75789 0 0.49475] CT
0.149 GC
2 setlinecap
10.0 ML
N
574 40 M
574 44.92 L
S
GR
GS
[0.75789 0 0 0.75789 62.14737 368.28421] CT
0.149 GC
/Helvetica 13 F
GS
[1 0 0 1 0 0] CT
-4.5 13 moveto 
1 -1 scale
(0) t 
GR
GR
GS
[0.75789 0 0 0.75789 99.43578 368.28421] CT
0.149 GC
/Helvetica 13 F
GS
[1 0 0 1 0 0] CT
-12.5 13 moveto 
1 -1 scale
(500) t 
GR
GR
GS
[0.75789 0 0 0.75789 136.7242 368.28421] CT
0.149 GC
/Helvetica 13 F
GS
[1 0 0 1 0 0] CT
-17 13 moveto 
1 -1 scale
(1000) t 
GR
GR
GS
[0.75789 0 0 0.75789 174.01263 368.28421] CT
0.149 GC
/Helvetica 13 F
GS
[1 0 0 1 0 0] CT
-17 13 moveto 
1 -1 scale
(1500) t 
GR
GR
GS
[0.75789 0 0 0.75789 211.30104 368.28421] CT
0.149 GC
/Helvetica 13 F
GS
[1 0 0 1 0 0] CT
-17 13 moveto 
1 -1 scale
(2000) t 
GR
GR
GS
[0.75789 0 0 0.75789 248.58947 368.28421] CT
0.149 GC
/Helvetica 13 F
GS
[1 0 0 1 0 0] CT
-17 13 moveto 
1 -1 scale
(2500) t 
GR
GR
GS
[0.75789 0 0 0.75789 285.8779 368.28421] CT
0.149 GC
/Helvetica 13 F
GS
[1 0 0 1 0 0] CT
-17 13 moveto 
1 -1 scale
(3000) t 
GR
GR
GS
[0.75789 0 0 0.75789 323.1663 368.28421] CT
0.149 GC
/Helvetica 13 F
GS
[1 0 0 1 0 0] CT
-17 13 moveto 
1 -1 scale
(3500) t 
GR
GR
GS
[0.75789 0 0 0.75789 360.45473 368.28421] CT
0.149 GC
/Helvetica 13 F
GS
[1 0 0 1 0 0] CT
-17 13 moveto 
1 -1 scale
(4000) t 
GR
GR
GS
[0.75789 0 0 0.75789 397.74314 368.28421] CT
0.149 GC
/Helvetica 13 F
GS
[1 0 0 1 0 0] CT
-17 13 moveto 
1 -1 scale
(4500) t 
GR
GR
GS
[0.75789 0 0 0.75789 435.03157 368.28421] CT
0.149 GC
/Helvetica 13 F
GS
[1 0 0 1 0 0] CT
-17 13 moveto 
1 -1 scale
(5000) t 
GR
GR
GS
[0.75789 0 0 0.75789 0 0.49475] CT
0.149 GC
2 setlinecap
10.0 ML
N
82 457.924 M
84.46 457.924 L
S
GR
GS
[0.75789 0 0 0.75789 0 0.49475] CT
0.149 GC
2 setlinecap
10.0 ML
N
82 445.011 M
84.46 445.011 L
S
GR
GS
[0.75789 0 0 0.75789 0 0.49475] CT
0.149 GC
2 setlinecap
10.0 ML
N
82 435.849 M
84.46 435.849 L
S
GR
GS
[0.75789 0 0 0.75789 0 0.49475] CT
0.149 GC
2 setlinecap
10.0 ML
N
82 428.742 M
84.46 428.742 L
S
GR
GS
[0.75789 0 0 0.75789 0 0.49475] CT
0.149 GC
2 setlinecap
10.0 ML
N
82 422.936 M
84.46 422.936 L
S
GR
GS
[0.75789 0 0 0.75789 0 0.49475] CT
0.149 GC
2 setlinecap
10.0 ML
N
82 418.026 M
84.46 418.026 L
S
GR
GS
[0.75789 0 0 0.75789 0 0.49475] CT
0.149 GC
2 setlinecap
10.0 ML
N
82 413.773 M
84.46 413.773 L
S
GR
GS
[0.75789 0 0 0.75789 0 0.49475] CT
0.149 GC
2 setlinecap
10.0 ML
N
82 410.022 M
84.46 410.022 L
S
GR
GS
[0.75789 0 0 0.75789 0 0.49475] CT
0.149 GC
2 setlinecap
10.0 ML
N
82 384.591 M
84.46 384.591 L
S
GR
GS
[0.75789 0 0 0.75789 0 0.49475] CT
0.149 GC
2 setlinecap
10.0 ML
N
82 371.678 M
84.46 371.678 L
S
GR
GS
[0.75789 0 0 0.75789 0 0.49475] CT
0.149 GC
2 setlinecap
10.0 ML
N
82 362.516 M
84.46 362.516 L
S
GR
GS
[0.75789 0 0 0.75789 0 0.49475] CT
0.149 GC
2 setlinecap
10.0 ML
N
82 355.409 M
84.46 355.409 L
S
GR
GS
[0.75789 0 0 0.75789 0 0.49475] CT
0.149 GC
2 setlinecap
10.0 ML
N
82 349.602 M
84.46 349.602 L
S
GR
GS
[0.75789 0 0 0.75789 0 0.49475] CT
0.149 GC
2 setlinecap
10.0 ML
N
82 344.693 M
84.46 344.693 L
S
GR
GS
[0.75789 0 0 0.75789 0 0.49475] CT
0.149 GC
2 setlinecap
10.0 ML
N
82 340.44 M
84.46 340.44 L
S
GR
GS
[0.75789 0 0 0.75789 0 0.49475] CT
0.149 GC
2 setlinecap
10.0 ML
N
82 336.689 M
84.46 336.689 L
S
GR
GS
[0.75789 0 0 0.75789 0 0.49475] CT
0.149 GC
2 setlinecap
10.0 ML
N
82 311.258 M
84.46 311.258 L
S
GR
GS
[0.75789 0 0 0.75789 0 0.49475] CT
0.149 GC
2 setlinecap
10.0 ML
N
82 298.344 M
84.46 298.344 L
S
GR
GS
[0.75789 0 0 0.75789 0 0.49475] CT
0.149 GC
2 setlinecap
10.0 ML
N
82 289.182 M
84.46 289.182 L
S
GR
GS
[0.75789 0 0 0.75789 0 0.49475] CT
0.149 GC
2 setlinecap
10.0 ML
N
82 282.076 M
84.46 282.076 L
S
GR
GS
[0.75789 0 0 0.75789 0 0.49475] CT
0.149 GC
2 setlinecap
10.0 ML
N
82 276.269 M
84.46 276.269 L
S
GR
GS
[0.75789 0 0 0.75789 0 0.49475] CT
0.149 GC
2 setlinecap
10.0 ML
N
82 271.359 M
84.46 271.359 L
S
GR
GS
[0.75789 0 0 0.75789 0 0.49475] CT
0.149 GC
2 setlinecap
10.0 ML
N
82 267.107 M
84.46 267.107 L
S
GR
GS
[0.75789 0 0 0.75789 0 0.49475] CT
0.149 GC
2 setlinecap
10.0 ML
N
82 263.356 M
84.46 263.356 L
S
GR
GS
[0.75789 0 0 0.75789 0 0.49475] CT
0.149 GC
2 setlinecap
10.0 ML
N
82 237.924 M
84.46 237.924 L
S
GR
GS
[0.75789 0 0 0.75789 0 0.49475] CT
0.149 GC
2 setlinecap
10.0 ML
N
82 225.011 M
84.46 225.011 L
S
GR
GS
[0.75789 0 0 0.75789 0 0.49475] CT
0.149 GC
2 setlinecap
10.0 ML
N
82 215.849 M
84.46 215.849 L
S
GR
GS
[0.75789 0 0 0.75789 0 0.49475] CT
0.149 GC
2 setlinecap
10.0 ML
N
82 208.742 M
84.46 208.742 L
S
GR
GS
[0.75789 0 0 0.75789 0 0.49475] CT
0.149 GC
2 setlinecap
10.0 ML
N
82 202.936 M
84.46 202.936 L
S
GR
GS
[0.75789 0 0 0.75789 0 0.49475] CT
0.149 GC
2 setlinecap
10.0 ML
N
82 198.026 M
84.46 198.026 L
S
GR
GS
[0.75789 0 0 0.75789 0 0.49475] CT
0.149 GC
2 setlinecap
10.0 ML
N
82 193.773 M
84.46 193.773 L
S
GR
GS
[0.75789 0 0 0.75789 0 0.49475] CT
0.149 GC
2 setlinecap
10.0 ML
N
82 190.022 M
84.46 190.022 L
S
GR
GS
[0.75789 0 0 0.75789 0 0.49475] CT
0.149 GC
2 setlinecap
10.0 ML
N
82 164.591 M
84.46 164.591 L
S
GR
GS
[0.75789 0 0 0.75789 0 0.49475] CT
0.149 GC
2 setlinecap
10.0 ML
N
82 151.678 M
84.46 151.678 L
S
GR
GS
[0.75789 0 0 0.75789 0 0.49475] CT
0.149 GC
2 setlinecap
10.0 ML
N
82 142.516 M
84.46 142.516 L
S
GR
GS
[0.75789 0 0 0.75789 0 0.49475] CT
0.149 GC
2 setlinecap
10.0 ML
N
82 135.409 M
84.46 135.409 L
S
GR
GS
[0.75789 0 0 0.75789 0 0.49475] CT
0.149 GC
2 setlinecap
10.0 ML
N
82 129.602 M
84.46 129.602 L
S
GR
GS
[0.75789 0 0 0.75789 0 0.49475] CT
0.149 GC
2 setlinecap
10.0 ML
N
82 124.693 M
84.46 124.693 L
S
GR
GS
[0.75789 0 0 0.75789 0 0.49475] CT
0.149 GC
2 setlinecap
10.0 ML
N
82 120.44 M
84.46 120.44 L
S
GR
GS
[0.75789 0 0 0.75789 0 0.49475] CT
0.149 GC
2 setlinecap
10.0 ML
N
82 116.689 M
84.46 116.689 L
S
GR
GS
[0.75789 0 0 0.75789 0 0.49475] CT
0.149 GC
2 setlinecap
10.0 ML
N
82 91.258 M
84.46 91.258 L
S
GR
GS
[0.75789 0 0 0.75789 0 0.49475] CT
0.149 GC
2 setlinecap
10.0 ML
N
82 78.344 M
84.46 78.344 L
S
GR
GS
[0.75789 0 0 0.75789 0 0.49475] CT
0.149 GC
2 setlinecap
10.0 ML
N
82 69.182 M
84.46 69.182 L
S
GR
GS
[0.75789 0 0 0.75789 0 0.49475] CT
0.149 GC
2 setlinecap
10.0 ML
N
82 62.076 M
84.46 62.076 L
S
GR
GS
[0.75789 0 0 0.75789 0 0.49475] CT
0.149 GC
2 setlinecap
10.0 ML
N
82 56.269 M
84.46 56.269 L
S
GR
GS
[0.75789 0 0 0.75789 0 0.49475] CT
0.149 GC
2 setlinecap
10.0 ML
N
82 51.359 M
84.46 51.359 L
S
GR
GS
[0.75789 0 0 0.75789 0 0.49475] CT
0.149 GC
2 setlinecap
10.0 ML
N
82 47.107 M
84.46 47.107 L
S
GR
GS
[0.75789 0 0 0.75789 0 0.49475] CT
0.149 GC
2 setlinecap
10.0 ML
N
82 43.356 M
84.46 43.356 L
S
GR
GS
[0.75789 0 0 0.75789 0 0.49475] CT
0.149 GC
2 setlinecap
10.0 ML
N
574 457.924 M
571.54 457.924 L
S
GR
GS
[0.75789 0 0 0.75789 0 0.49475] CT
0.149 GC
2 setlinecap
10.0 ML
N
574 445.011 M
571.54 445.011 L
S
GR
GS
[0.75789 0 0 0.75789 0 0.49475] CT
0.149 GC
2 setlinecap
10.0 ML
N
574 435.849 M
571.54 435.849 L
S
GR
GS
[0.75789 0 0 0.75789 0 0.49475] CT
0.149 GC
2 setlinecap
10.0 ML
N
574 428.742 M
571.54 428.742 L
S
GR
GS
[0.75789 0 0 0.75789 0 0.49475] CT
0.149 GC
2 setlinecap
10.0 ML
N
574 422.936 M
571.54 422.936 L
S
GR
GS
[0.75789 0 0 0.75789 0 0.49475] CT
0.149 GC
2 setlinecap
10.0 ML
N
574 418.026 M
571.54 418.026 L
S
GR
GS
[0.75789 0 0 0.75789 0 0.49475] CT
0.149 GC
2 setlinecap
10.0 ML
N
574 413.773 M
571.54 413.773 L
S
GR
GS
[0.75789 0 0 0.75789 0 0.49475] CT
0.149 GC
2 setlinecap
10.0 ML
N
574 410.022 M
571.54 410.022 L
S
GR
GS
[0.75789 0 0 0.75789 0 0.49475] CT
0.149 GC
2 setlinecap
10.0 ML
N
574 384.591 M
571.54 384.591 L
S
GR
GS
[0.75789 0 0 0.75789 0 0.49475] CT
0.149 GC
2 setlinecap
10.0 ML
N
574 371.678 M
571.54 371.678 L
S
GR
GS
[0.75789 0 0 0.75789 0 0.49475] CT
0.149 GC
2 setlinecap
10.0 ML
N
574 362.516 M
571.54 362.516 L
S
GR
GS
[0.75789 0 0 0.75789 0 0.49475] CT
0.149 GC
2 setlinecap
10.0 ML
N
574 355.409 M
571.54 355.409 L
S
GR
GS
[0.75789 0 0 0.75789 0 0.49475] CT
0.149 GC
2 setlinecap
10.0 ML
N
574 349.602 M
571.54 349.602 L
S
GR
GS
[0.75789 0 0 0.75789 0 0.49475] CT
0.149 GC
2 setlinecap
10.0 ML
N
574 344.693 M
571.54 344.693 L
S
GR
GS
[0.75789 0 0 0.75789 0 0.49475] CT
0.149 GC
2 setlinecap
10.0 ML
N
574 340.44 M
571.54 340.44 L
S
GR
GS
[0.75789 0 0 0.75789 0 0.49475] CT
0.149 GC
2 setlinecap
10.0 ML
N
574 336.689 M
571.54 336.689 L
S
GR
GS
[0.75789 0 0 0.75789 0 0.49475] CT
0.149 GC
2 setlinecap
10.0 ML
N
574 311.258 M
571.54 311.258 L
S
GR
GS
[0.75789 0 0 0.75789 0 0.49475] CT
0.149 GC
2 setlinecap
10.0 ML
N
574 298.344 M
571.54 298.344 L
S
GR
GS
[0.75789 0 0 0.75789 0 0.49475] CT
0.149 GC
2 setlinecap
10.0 ML
N
574 289.182 M
571.54 289.182 L
S
GR
GS
[0.75789 0 0 0.75789 0 0.49475] CT
0.149 GC
2 setlinecap
10.0 ML
N
574 282.076 M
571.54 282.076 L
S
GR
GS
[0.75789 0 0 0.75789 0 0.49475] CT
0.149 GC
2 setlinecap
10.0 ML
N
574 276.269 M
571.54 276.269 L
S
GR
GS
[0.75789 0 0 0.75789 0 0.49475] CT
0.149 GC
2 setlinecap
10.0 ML
N
574 271.359 M
571.54 271.359 L
S
GR
GS
[0.75789 0 0 0.75789 0 0.49475] CT
0.149 GC
2 setlinecap
10.0 ML
N
574 267.107 M
571.54 267.107 L
S
GR
GS
[0.75789 0 0 0.75789 0 0.49475] CT
0.149 GC
2 setlinecap
10.0 ML
N
574 263.356 M
571.54 263.356 L
S
GR
GS
[0.75789 0 0 0.75789 0 0.49475] CT
0.149 GC
2 setlinecap
10.0 ML
N
574 237.924 M
571.54 237.924 L
S
GR
GS
[0.75789 0 0 0.75789 0 0.49475] CT
0.149 GC
2 setlinecap
10.0 ML
N
574 225.011 M
571.54 225.011 L
S
GR
GS
[0.75789 0 0 0.75789 0 0.49475] CT
0.149 GC
2 setlinecap
10.0 ML
N
574 215.849 M
571.54 215.849 L
S
GR
GS
[0.75789 0 0 0.75789 0 0.49475] CT
0.149 GC
2 setlinecap
10.0 ML
N
574 208.742 M
571.54 208.742 L
S
GR
GS
[0.75789 0 0 0.75789 0 0.49475] CT
0.149 GC
2 setlinecap
10.0 ML
N
574 202.936 M
571.54 202.936 L
S
GR
GS
[0.75789 0 0 0.75789 0 0.49475] CT
0.149 GC
2 setlinecap
10.0 ML
N
574 198.026 M
571.54 198.026 L
S
GR
GS
[0.75789 0 0 0.75789 0 0.49475] CT
0.149 GC
2 setlinecap
10.0 ML
N
574 193.773 M
571.54 193.773 L
S
GR
GS
[0.75789 0 0 0.75789 0 0.49475] CT
0.149 GC
2 setlinecap
10.0 ML
N
574 190.022 M
571.54 190.022 L
S
GR
GS
[0.75789 0 0 0.75789 0 0.49475] CT
0.149 GC
2 setlinecap
10.0 ML
N
574 164.591 M
571.54 164.591 L
S
GR
GS
[0.75789 0 0 0.75789 0 0.49475] CT
0.149 GC
2 setlinecap
10.0 ML
N
574 151.678 M
571.54 151.678 L
S
GR
GS
[0.75789 0 0 0.75789 0 0.49475] CT
0.149 GC
2 setlinecap
10.0 ML
N
574 142.516 M
571.54 142.516 L
S
GR
GS
[0.75789 0 0 0.75789 0 0.49475] CT
0.149 GC
2 setlinecap
10.0 ML
N
574 135.409 M
571.54 135.409 L
S
GR
GS
[0.75789 0 0 0.75789 0 0.49475] CT
0.149 GC
2 setlinecap
10.0 ML
N
574 129.602 M
571.54 129.602 L
S
GR
GS
[0.75789 0 0 0.75789 0 0.49475] CT
0.149 GC
2 setlinecap
10.0 ML
N
574 124.693 M
571.54 124.693 L
S
GR
GS
[0.75789 0 0 0.75789 0 0.49475] CT
0.149 GC
2 setlinecap
10.0 ML
N
574 120.44 M
571.54 120.44 L
S
GR
GS
[0.75789 0 0 0.75789 0 0.49475] CT
0.149 GC
2 setlinecap
10.0 ML
N
574 116.689 M
571.54 116.689 L
S
GR
GS
[0.75789 0 0 0.75789 0 0.49475] CT
0.149 GC
2 setlinecap
10.0 ML
N
574 91.258 M
571.54 91.258 L
S
GR
GS
[0.75789 0 0 0.75789 0 0.49475] CT
0.149 GC
2 setlinecap
10.0 ML
N
574 78.344 M
571.54 78.344 L
S
GR
GS
[0.75789 0 0 0.75789 0 0.49475] CT
0.149 GC
2 setlinecap
10.0 ML
N
574 69.182 M
571.54 69.182 L
S
GR
GS
[0.75789 0 0 0.75789 0 0.49475] CT
0.149 GC
2 setlinecap
10.0 ML
N
574 62.076 M
571.54 62.076 L
S
GR
GS
[0.75789 0 0 0.75789 0 0.49475] CT
0.149 GC
2 setlinecap
10.0 ML
N
574 56.269 M
571.54 56.269 L
S
GR
GS
[0.75789 0 0 0.75789 0 0.49475] CT
0.149 GC
2 setlinecap
10.0 ML
N
574 51.359 M
571.54 51.359 L
S
GR
GS
[0.75789 0 0 0.75789 0 0.49475] CT
0.149 GC
2 setlinecap
10.0 ML
N
574 47.107 M
571.54 47.107 L
S
GR
GS
[0.75789 0 0 0.75789 0 0.49475] CT
0.149 GC
2 setlinecap
10.0 ML
N
574 43.356 M
571.54 43.356 L
S
GR
GS
[0 -0.75789 0.75789 0 36.95789 197.54721] CT
0.149 GC
/Helvetica 15 F
GS
[1 0 0 1 0 0] CT
-87.5 -4 moveto 
1 -1 scale
(Runtime in miliseconds) t 
GR
GR
GS
[0.75789 0 0 0.75789 0 0.49475] CT
0.149 GC
2 setlinecap
10.0 ML
N
82 480 M
82 40 L
S
GR
GS
[0.75789 0 0 0.75789 0 0.49475] CT
0.149 GC
2 setlinecap
10.0 ML
N
574 480 M
574 40 L
S
GR
GS
[0.75789 0 0 0.75789 0 0.49475] CT
0.149 GC
2 setlinecap
10.0 ML
N
82 480 M
86.92 480 L
S
GR
GS
[0.75789 0 0 0.75789 0 0.49475] CT
0.149 GC
2 setlinecap
10.0 ML
N
82 406.667 M
86.92 406.667 L
S
GR
GS
[0.75789 0 0 0.75789 0 0.49475] CT
0.149 GC
2 setlinecap
10.0 ML
N
82 333.333 M
86.92 333.333 L
S
GR
GS
[0.75789 0 0 0.75789 0 0.49475] CT
0.149 GC
2 setlinecap
10.0 ML
N
82 260 M
86.92 260 L
S
GR
GS
[0.75789 0 0 0.75789 0 0.49475] CT
0.149 GC
2 setlinecap
10.0 ML
N
82 186.667 M
86.92 186.667 L
S
GR
GS
[0.75789 0 0 0.75789 0 0.49475] CT
0.149 GC
2 setlinecap
10.0 ML
N
82 113.333 M
86.92 113.333 L
S
GR
GS
[0.75789 0 0 0.75789 0 0.49475] CT
0.149 GC
2 setlinecap
10.0 ML
N
82 40 M
86.92 40 L
S
GR
GS
[0.75789 0 0 0.75789 0 0.49475] CT
0.149 GC
2 setlinecap
10.0 ML
N
574 480 M
569.08 480 L
S
GR
GS
[0.75789 0 0 0.75789 0 0.49475] CT
0.149 GC
2 setlinecap
10.0 ML
N
574 406.667 M
569.08 406.667 L
S
GR
GS
[0.75789 0 0 0.75789 0 0.49475] CT
0.149 GC
2 setlinecap
10.0 ML
N
574 333.333 M
569.08 333.333 L
S
GR
GS
[0.75789 0 0 0.75789 0 0.49475] CT
0.149 GC
2 setlinecap
10.0 ML
N
574 260 M
569.08 260 L
S
GR
GS
[0.75789 0 0 0.75789 0 0.49475] CT
0.149 GC
2 setlinecap
10.0 ML
N
574 186.667 M
569.08 186.667 L
S
GR
GS
[0.75789 0 0 0.75789 0 0.49475] CT
0.149 GC
2 setlinecap
10.0 ML
N
574 113.333 M
569.08 113.333 L
S
GR
GS
[0.75789 0 0 0.75789 0 0.49475] CT
0.149 GC
2 setlinecap
10.0 ML
N
574 40 M
569.08 40 L
S
GR
GS
[0.75789 0 0 0.75789 40.16842 369.58948] CT
0.149 GC
/Helvetica 13 F
GS
[1 0 0 1 0 0] CT
0 0 moveto 
1 -1 scale
(10) t 
GR
GR
GS
[0.75789 0 0 0.75789 53.05263 365.04211] CT
0.149 GC
/Helvetica 11 F
GS
[1 0 0 1 0 0] CT
0 0 moveto 
1 -1 scale
(1) t 
GR
GR
GS
[0.75789 0 0 0.75789 40.16842 314.26316] CT
0.149 GC
/Helvetica 13 F
GS
[1 0 0 1 0 0] CT
0 0 moveto 
1 -1 scale
(10) t 
GR
GR
GS
[0.75789 0 0 0.75789 53.05263 309.71579] CT
0.149 GC
/Helvetica 11 F
GS
[1 0 0 1 0 0] CT
0 0 moveto 
1 -1 scale
(2) t 
GR
GR
GS
[0.75789 0 0 0.75789 40.16842 258.17895] CT
0.149 GC
/Helvetica 13 F
GS
[1 0 0 1 0 0] CT
0 0 moveto 
1 -1 scale
(10) t 
GR
GR
GS
[0.75789 0 0 0.75789 53.05263 253.63158] CT
0.149 GC
/Helvetica 11 F
GS
[1 0 0 1 0 0] CT
0 0 moveto 
1 -1 scale
(3) t 
GR
GR
GS
[0.75789 0 0 0.75789 40.16842 202.85264] CT
0.149 GC
/Helvetica 13 F
GS
[1 0 0 1 0 0] CT
0 0 moveto 
1 -1 scale
(10) t 
GR
GR
GS
[0.75789 0 0 0.75789 53.05263 198.30527] CT
0.149 GC
/Helvetica 11 F
GS
[1 0 0 1 0 0] CT
0 0 moveto 
1 -1 scale
(4) t 
GR
GR
GS
[0.75789 0 0 0.75789 40.16842 147.52632] CT
0.149 GC
/Helvetica 13 F
GS
[1 0 0 1 0 0] CT
0 0 moveto 
1 -1 scale
(10) t 
GR
GR
GS
[0.75789 0 0 0.75789 53.05263 142.97896] CT
0.149 GC
/Helvetica 11 F
GS
[1 0 0 1 0 0] CT
0 0 moveto 
1 -1 scale
(5) t 
GR
GR
GS
[0.75789 0 0 0.75789 40.16842 91.44212] CT
0.149 GC
/Helvetica 13 F
GS
[1 0 0 1 0 0] CT
0 0 moveto 
1 -1 scale
(10) t 
GR
GR
GS
[0.75789 0 0 0.75789 53.05263 86.89475] CT
0.149 GC
/Helvetica 11 F
GS
[1 0 0 1 0 0] CT
0 0 moveto 
1 -1 scale
(6) t 
GR
GR
GS
[0.75789 0 0 0.75789 40.16842 36.1158] CT
0.149 GC
/Helvetica 13 F
GS
[1 0 0 1 0 0] CT
0 0 moveto 
1 -1 scale
(10) t 
GR
GR
GS
[0.75789 0 0 0.75789 53.05263 31.56843] CT
0.149 GC
/Helvetica 11 F
GS
[1 0 0 1 0 0] CT
0 0 moveto 
1 -1 scale
(7) t 
GR
GR
GS
[0.75789 0 0 0.75789 0 0.49475] CT
0 0.447 0.741 RC
2 setlinecap
10.0 ML
N
82.984 447.208 M
91.84 438.332 L
131.2 409.322 L
180.4 379.864 L
328 330.24 L
574 288.087 L
S
GR
GS
[0.75789 0 0 0.75789 0 0.49475] CT
0.851 0.325 0.098 RC
2 setlinecap
10.0 ML
N
82.984 463.1 M
91.84 395.724 L
131.2 323.307 L
180.4 265.157 L
328 160.484 L
574 72.552 L
S
GR
GS
[0.75789 0 0 0.75789 0 0.49475] CT
1 GC
N
350 86 M
350 50 L
525 50 L
525 86 L
cp
f
GR
GS
[0.75789 0 0 0.75789 304.39358 46.08706] CT
/Helvetica 12 F
GS
[1 0 0 1 0 0] CT
0 4.5 moveto 
1 -1 scale
(ATI Radeon r9 280x) t 
GR
GR
GS
[0.75789 0 0 0.75789 0 0.49475] CT
0 0.447 0.741 RC
2 setlinecap
10.0 ML
N
357.943 60.157 M
397.659 60.157 L
S
GR
GS
[0.75789 0 0 0.75789 304.39358 57.97612] CT
/Helvetica 12 F
GS
[1 0 0 1 0 0] CT
0 4.5 moveto 
1 -1 scale
(AMD FX-6300) t 
GR
GR
GS
[0.75789 0 0 0.75789 0 0.49475] CT
0.851 0.325 0.098 RC
2 setlinecap
10.0 ML
N
357.943 75.843 M
397.659 75.843 L
S
GR
GS
[0.75789 0 0 0.75789 0 0.49475] CT
0.149 GC
2 setlinecap
10.0 ML
N
350 86 M
350 50 L
525 50 L
525 86 L
350 86 L
S
GR
%%Trailer
%%Pages: 1
%%EOF
